<svg width="40" height="40" viewBox="0 0 40 40" fill="none" xmlns="http://www.w3.org/2000/svg">
<path d="M36.6663 9.66702C35.4136 10.2105 34.0887 10.5698 32.733 10.7337C34.1633 9.87922 35.2351 8.53499 35.7497 6.95035C34.4056 7.75045 32.9343 8.31418 31.3997 8.61702C30.3739 7.50464 29.008 6.76418 27.516 6.51177C26.0241 6.25936 24.4906 6.50928 23.156 7.22233C21.8214 7.93538 20.7612 9.07123 20.1417 10.4517C19.5223 11.8323 19.3785 13.3793 19.733 14.8503C17.0154 14.7129 14.3571 14.0053 11.9308 12.7735C9.50445 11.5416 7.36442 9.81317 5.64967 7.70035C5.04824 8.75063 4.73221 9.94005 4.73301 11.1504C4.73088 12.2743 5.0067 13.3814 5.53593 14.373C6.06516 15.3645 6.83137 16.2099 7.76634 16.8337C6.67964 16.8041 5.61615 16.5125 4.66634 15.9837V16.067C4.67449 17.6418 5.22633 19.1655 6.22853 20.3803C7.23073 21.5951 8.62177 22.4264 10.1663 22.7337C9.57177 22.9146 8.95447 23.01 8.33301 23.017C7.90282 23.012 7.47371 22.973 7.04967 22.9004C7.48952 24.255 8.34071 25.4389 9.4848 26.2873C10.6289 27.1356 12.009 27.6063 13.433 27.6337C11.0283 29.5258 8.05948 30.5584 4.99967 30.567C4.44257 30.5688 3.8859 30.5354 3.33301 30.467C6.45706 32.4841 10.0977 33.5549 13.8163 33.5504C16.3825 33.577 18.9282 33.092 21.3049 32.1238C23.6815 31.1556 25.8414 29.7235 27.6583 27.9112C29.4753 26.0989 30.9129 23.9427 31.8873 21.5685C32.8616 19.1944 33.3531 16.6499 33.333 14.0837V13.2003C34.6408 12.225 35.7688 11.0294 36.6663 9.66702Z" fill="url(#paint0_linear_207_1625)"/>
<defs>
<linearGradient id="paint0_linear_207_1625" x1="14.2828" y1="8.78981" x2="32.3141" y2="30.0115" gradientUnits="userSpaceOnUse">
<stop stop-color="#0094D1"/>
<stop offset="1" stop-color="#22B4E7"/>
</linearGradient>
</defs>
</svg>
