<svg width="25" height="26" viewBox="0 0 25 26" fill="none" xmlns="http://www.w3.org/2000/svg">
<path d="M8.88852 0.923775L15.606 5.34251L23.5975 4.45565L21.4708 12.2098L24.7838 19.5361L16.752 19.9097L10.808 25.3245L7.9707 17.8012L0.984184 13.8214L7.26247 8.79817L8.88852 0.923775Z" fill="white"/>
</svg>
